"0","dt_data %>%"
"0","  dplyr::select(sharing_cong,km_trained)%>%"
"0","  filter(sharing_cong==0)%>%"
"0","  dplyr::group_by(km_trained) %>%"
"0","  summarise(count=n())%>%"
"0","    mutate(ave=count/sum(count))%>%"
"0","   ggplot(aes(km_trained,ave))+"
"0","  geom_bar(fill=""#0071BC"",stat=""identity"")+"
"0","  scale_y_continuous(limits=c(0,.6), labels=scales::percent) +"
"0","   scale_x_discrete(limits=c(""Yes"",""To some extent"",""No""))+"
"0","  geom_text(aes(label=paste0(round(ave*100,1),""%"")), position=position_dodge(0),vjust=-0.25,size=3) +"
"0","   busara_theme+"
"0","  ylab(""Percentage"")+ xlab("""")+ggtitle(""Knowledge management training"")"
