"0","# Mojo"
"0","# Wolkite"
"0","# Woliso"
"0","# Hosana"
"0","mojo_2019<-mojo_2019%>%"
"0","mutate(Branch=rep(""Mojo"",1))"
"0",""
"0","wolkite_2019<-wolkite_2019%>%"
"0","  mutate(Branch=rep(""Wolkite"",1))"
"0","  "
"0","woliso_2019<-woliso_2019%>%"
"0","  mutate(Branch=rep(""Woliso"",1))"
"0",""
"0","treatment_savings_2019<-rbind(mojo_2019,wolkite_2019,woliso_2019)"
"0",""
"0",""
"0","treatment_savings_2019%>%"
"0","  filter(amount>0)%>%"
"0","  dplyr::group_by(Branch)%>%"
"0","  summarise(savings=sum(amount))%>%"
"0","ggplot(aes(Branch,savings))+"
"0","  geom_bar(fill=""#0071BC"",stat=""identity"")+"
"0","  geom_text(aes(label=savings), position=position_dodge(0),vjust=-0.25,size=3) +"
"0","   busara_theme+"
"0","  ylab(""Total"")+ xlab("""")+ggtitle(""Total savings amount for the treatment branches"")"
