"0","dt_data %>%"
"0","  dplyr::select(search_cong,style)%>%"
"0","  mutate(style=str_to_sentence(style))%>%"
"0","  filter(search_cong==0)%>%"
"0","  dplyr::group_by(style) %>%"
"0","  summarise(count=n())%>%"
"0","    mutate(ave=count/sum(count))%>%"
"0","   ggplot(aes(x=reorder(style,-ave),y=ave))+"
"0","  geom_bar(fill=""#0071BC"",stat=""identity"")+"
"0","  scale_y_continuous(limits=c(0,.4), labels=scales::percent) +"
"0","  geom_text(aes(label=paste0(round(ave*100,1),""%"")), position=position_dodge(0),vjust=-0.25,size=3) +"
"0","   busara_theme+"
"0","  ylab(""Percentage"")+ xlab(""Learning style"")+ggtitle(""Learning style"")"
