"0","#Trained on KM"
"0","ksuccess_data%>%"
"0","  dplyr::select(km_trained)%>%"
"0","   mutate(km_trained=ifelse(km_trained==1,""Yes"","
"0","                        ifelse(km_trained==2,""No"","
"0","                               ifelse(km_trained==3,""To some extent"",NA))))%>%"
"0",""
"0","  group_by(km_trained)%>%"
"0","  filter(km_trained!=""NA"")%>%"
"0","  summarise(count=n())%>%"
"0","  mutate(perc=count/sum(count)) %>%"
"0","  ggplot(aes(km_trained,perc))+"
"0","  geom_bar(fill=""#0071BC"",stat=""identity"")+"
"0","  scale_y_continuous(limits=c(0,.5), labels=scales::percent) +"
"0","  scale_x_discrete(limits=c(""Yes"",""To some extent"",""No""))+"
"0","  geom_text(aes(label=paste0(round(perc*100,1),""%"")), position=position_dodge(0),vjust=-0.25,size=3) +"
"0","   busara_theme+"
"0","  ylab(""Percentage"")+ xlab("""")+ggtitle(""Has Knowledge Management training \nbeen provided at the respondent's organization?"")"
"0",""
