"0","#medium_internal_sharing"
"0","dataset%>%dplyr::select(medium_internal_sharing)%>%"
"0","  mutate(sharing_behavior=ifelse(medium_internal_sharing==1,""Face to face"","
"0","                                 ifelse(medium_internal_sharing==2,""Phone"","
"0","                                        ifelse(medium_internal_sharing==3,""Email"","
"0","                                               ifelse(medium_internal_sharing==4,""Video conferencing"","
"0","                                                      ifelse(medium_internal_sharing==5,""Chat apps"","
"0","                                                             ifelse(medium_internal_sharing==6,""Websites"","
"0","                                                                     ifelse(medium_internal_sharing==7,""Communities \nof practice"","
"0","                                                                             ifelse(medium_internal_sharing==8,""Paper"","
"0","                                                                    ifelse(medium_internal_sharing==9,""Others"",NA))))))))))%>%"
"0","    mutate(id=rep(dtm,1))%>%"
"0","  # filter(sharing_behavior!=""Others"")%>%"
"0","   dplyr::select(id,sharing_behavior)%>%"
"0","   group_by(sharing_behavior)%>%"
"0","                   summarise(count=n())%>%"
"0","                   mutate(perc=count/sum(count))%>%"
"0","  "
"0","  "
"0","  ggplot(aes(x=reorder(sharing_behavior,-perc),y=perc))+"
"0","  geom_bar(fill=""#0071BC"",stat=""identity"")+"
"0","  scale_y_continuous(labels=scales::percent) +"
"0","  geom_text(aes(label=paste0(round(perc*100,1),""%"")), position=position_dodge(0),vjust=-0.25,size=3)+"
"0","   busara_theme+"
"0","  ylab(""Percentage"")+ xlab("""")+ggtitle(""Respondents distribution by preferred internal sharing mediums"")  "
