"0","dt_data %>%"
"0","  dplyr::select(sharing_cong,why_share_info)%>%"
"0","  filter(sharing_cong==0)%>%"
"0","  dplyr::group_by(why_share_info) %>%"
"0","  summarise(count=n())%>%"
"0","    mutate(ave=count/sum(count))%>%"
"0","    ggplot(aes(x=reorder(why_share_info,-ave),y=ave))+"
"0","  geom_bar(fill=""#0071BC"",stat=""identity"")+"
"0","  scale_y_continuous(limits=c(0,0.5), labels=scales::percent) +"
"0","  geom_text(aes(label=paste0(round(ave*100,1),""%"")), position=position_dodge(0),hjust=-0.25,size=3) +"
"0","   busara_theme1+coord_flip()+"
"0","  ylab(""Percentage"")+ xlab("""")+ggtitle(""Why do respondents share information?"")"
