"0","###Check fprh vs. non-fprh graph matches sample size"
"0","raw_data%>%"
"0","  mutate(fprh=ifelse(fprh==1,""FPRH"",""NON-FPRH""))%>%"
"0","# clean other dplyr::selections"
"0","group_by(fprh)%>%"
"0","  summarise(count=n())%>%"
"0","  mutate(perc=count/sum(count))%>%"
"0","  ggplot(aes(x = reorder(fprh, -perc), y = perc))+"
"0","  geom_bar(fill=""#0071BC"",stat=""identity"")+"
"0","  scale_y_continuous(limits=c(0,.6), labels=scales::percent) +"
"0","  geom_text(aes(label=paste0(round(perc*100,1),""%"")), position = position_dodge(0),vjust = -0.25, size = 3) +"
"0","   busara_theme+"
"0","  ylab(""Percentage"")+ xlab("""")+ggtitle(""Family Planning/Reproductive Health (FPRH) vs \n Non Family Planning/Reproductive Health (NON-FPRH)"")"
"0",""
