"0","#Formal document on information sharing "
"0",""
"0","dataset%>%"
"0","  dplyr::select(have_km_guide)%>%"
"0","   mutate(have_km_guide=ifelse(have_km_guide==1,""Yes"","
"0","                        ifelse(have_km_guide==2,""No"","
"0","                               ifelse(have_km_guide==3,""To some extent"","
"0","                              ifelse(have_km_guide==4,""I am not sure"",NA)))))%>%"
"0","                                            "
"0",""
"0","  group_by(have_km_guide)%>%"
"0","  filter(have_km_guide!=""NA"")%>%"
"0","  summarise(count=n())%>%"
"0","  mutate(perc=count/sum(count)) %>%"
"0","  ggplot(aes(have_km_guide,perc))+"
"0","  geom_bar(fill=""#0071BC"",stat=""identity"")+"
"0","  scale_y_continuous(limits=c(0,.6), labels=scales::percent) +"
"0","  scale_x_discrete(limits=c(""Yes"",""To some extent"",""I am not sure"",""No""))+"
"0","  geom_text(aes(label=paste0(round(perc*100,1),""%"")), position=position_dodge(0),vjust=-0.25,size=3) +"
"0","   busara_theme+"
"0","  ylab(""Percentage"")+ xlab("""")+ggtitle(""Does the respondents' organization have a formal document to guide\n internal and external knowledge sharing?"")"
