"0","dataset%>%"
"0","  dplyr::select(education)%>%"
"0","   mutate(education=ifelse(education==1,""No formal education"","
"0","                        ifelse(education==2,""Primary school"","
"0","                               ifelse(education==3,""Secondary school"","
"0","                                      ifelse(education==4,""Undergraduate degree"","
"0","                                             ifelse(education==5,""Masters degree"","
"0","                                                    ifelse(education==6,""Doctorate"","
"0","                          ifelse(grepl(""post|mbbs| MPH|"", dataset$education,ignore.case = T),""Masters degree"",  "
"0","ifelse(grepl(""Universitaire|degree|Graduate"", dataset$education,ignore.case = T),""Undergraduate degree"", "
"0","       ifelse(grepl(""diploma"", dataset$education,ignore.case = T),""Diploma"", "
"0","                        ifelse(education==7,""Religious seminary"",education)))))))))))%>%"
"0",""
"0","  group_by(education)%>%"
"0","  filter(education!=""NA"")%>%"
"0","  summarise(count=n())%>%"
"0","  mutate(perc=count/sum(count)) %>%"
"0","  ggplot(aes(education,perc))+"
"0","  geom_bar(fill=""#0071BC"",stat=""identity"")+"
"0","  scale_y_continuous(limits=c(0,.7), labels=scales::percent) +"
"0","  scale_x_discrete(limits=c(""Doctorate"",""Masters degree"",""Undergraduate degree"",""Secondary school""))+"
"0","  geom_text(aes(label=paste0(round(perc*100,1),""%"")), position=position_dodge(0),vjust=-0.25,size=3) +"
"0","   busara_theme+"
"0","  ylab(""Percentage"")+ xlab("""")+ggtitle(""Respondents distribution by education level"")"
"0",""
