"0",""
"0","## create variable archetypes"
"0","dt_data%>%"
"0","   filter(sharing_cong!=""NA"")%>%"
"0","  mutate(sharing=ifelse(sharing_cong==1,""Sharing Congruent"",""Sharing Incongruent""))%>%"
"0"," filter(group!=""Others"")%>%"
"0","  dplyr::group_by(group,sharing)%>%"
"0","  dplyr::summarise(count=n())%>%"
"0","  #dplyr::mutate(avg_cases=count/sum(count))%>%"
"0","    mutate(ave=round(count/sum(count),2)*100)%>%"
"0","     dcast(group~sharing, value.var=""ave"")%>%"
"0","    kable() %>%"
"0","    kable_styling()"
