"0",""
"0","data_ls6<-ksuccess_data%>%"
"0","  dplyr::select(have_tools_to_share)%>%"
"0","   mutate(Have_tools_to_share=ifelse(have_tools_to_share==1,""I strongly agree"","
"0","                        ifelse(have_tools_to_share==2,""I agree"","
"0","                               ifelse(have_tools_to_share==3,""I am not sure"","
"0","                                      ifelse(have_tools_to_share==4,""I disagee"","
"0","                      ifelse(have_tools_to_share==5,""I strongly disagree"",NA))))))%>%"
"0","  "
"0","                                         "
"0","  mutate(id=rep(dtm,1))%>%"
"0","  filter(Have_tools_to_share!=""NA"")%>%"
"0","  group_by(id)%>%"
"0","  dplyr::select(id,Have_tools_to_share)"
"0","   "
"0",""
"0",""
"0","ds<-ksuccess_data%>%"
"0","   mutate(Gender=ifelse(gender==1,""Male"","
"0","      ifelse(gender==2,""Female"",""Prefer not to answer"")))%>%"
"0","   mutate(id=rep(dtm,1))%>%"
"0","  filter(gender!=""NA"")%>%"
"0","  dplyr::select(id,Gender)"
"0","  "
"0",""
"0","  data_fn<-merge(ds,data_ls6,by=""id"")"
"0",""
"0","        dt3<-data_fn%>%group_by(Have_tools_to_share,Gender)%>%"
"0","        summarise(count=n())%>%"
"0","        mutate(ave=round(count/sum(count),2))"
"0","    "
"0","     dcast(dt3,Gender~Have_tools_to_share, value.var=""ave"")%>%"
"0","    kable() %>%"
"0","    kable_styling()"
