"0","#Why they share information"
"0","#why_share_info"
"0","ksuccess_data%>%"
"0","  dplyr::select(why_share_info)%>%"
"0","   mutate(why_share_info=ifelse(why_share_info==1,""'I am expected to share\n relevant information"","
"0","                        ifelse(why_share_info==2,""I like sharing relevant information\n with my colleagues"","
"0","                               ifelse(why_share_info==3,""To influence organizational \ndecision making"","
"0","                              ifelse(why_share_info==4,""To meet the requirements\n for my role"","
"0","                                  ifelse(why_share_info==5,""I respond to direct \n requests for information"","
"0","                                  ifelse(why_share_info==6,""To encourage reciprocation"",""Others"")))))))%>%"
"0","                     "
"0",""
"0","  group_by(why_share_info)%>%"
"0","  #filter(why_share_info!=""NA"")%>%"
"0","  summarise(count=n())%>%"
"0","  mutate(perc=count/sum(count)) %>%"
"0","  ggplot(aes(x=reorder(why_share_info,-perc),y=perc))+"
"0","  geom_bar(fill=""#0071BC"",stat=""identity"")+"
"0","  scale_y_continuous(limits=c(0,.5), labels=scales::percent) +"
"0","  geom_text(aes(label=paste0(round(perc*100,1),""%"")), position=position_dodge(0),hjust=-0.15,size=3) +"
"0","   busara_theme2+coord_flip()+"
"0","  ylab(""Percentage"")+ xlab("""")+ggtitle(""Why do respondents share information?"")"
"0",""
