"0",""
"0","dataset %>% dplyr::select(names(dataset)[12:21]) %>% gather()%>%"
"0","  mutate(key=ifelse(key==""pvo"",""Private voluntary\n organization"","
"0","                    ifelse(key==""academic"",""Academic/research \ninstitution"","
"0","                           ifelse(key==""ngo"",""Non governmental \n organization"","
"0","                                  ifelse(key==""govt"",""Government \n body"","
"0","                                    ifelse(key==""donor"",""Donor agency"","
"0","                                           ifelse(key==""private_company"",""Private company"","
"0","                                           ifelse(key==""fbo"",""Faith-based\n organization"","
"0","                                                  ifelse(key==""media"",""News media \norganization"","
"0","                                                          ifelse(key==""health_org"",""Medical\n organization"",""Others""))))))))))%>%"
"0","  "
"0","  # clean other dplyr::selections"
"0","group_by(key)%>%"
"0","  filter(value!=0)%>%"
"0","  summarise(count=n())%>%"
"0","  mutate(perc=count/sum(count)) %>%"
"0","  ggplot(aes(reorder(key,-perc),y=perc))+"
"0","  geom_bar(fill=""#0071BC"",stat=""identity"")+"
"0","  #scale_y_continuous(limits=c(0,.6), labels=scales::percent) +"
"0","  geom_text(aes(label=paste0(round(perc*100,1),""%"")), position = position_dodge(0),hjust =-0.15, size = 3) +"
"0","   busara_theme2+coord_flip()+"
"0","  ylab(""Number of respondents"")+ xlab("""")+ggtitle(""Type of organization that the respondent works for"")"
"0",""
