"0","dt_data %>%"
"0","  #dplyr::select(search_behavior)%>%"
"0","  filter(search_cong==0)%>%"
"0","mutate(search_behavior=ifelse(search_behavior==""Websites and online publications"",""Websites and\n online publications"","
"0","                               ifelse(search_behavior==""Network of contacts"",""Network\n of contact"","
"0","                                      ifelse(search_behavior==""Meetings & workshops"",""Meetings and\n workshops"","
"0","           ifelse(search_behavior==""Organization external sources"",""Organizational external\n sources"",search_behavior)))))%>% "
"0","  filter(search_behavior!=""other_source"",)%>%"
"0","  dplyr::group_by(search_behavior) %>%"
"0","  summarise(count=n())%>%"
"0","    mutate(ave=count/sum(count))%>%"
"0","   ggplot(aes(x=reorder(search_behavior,-ave),y=ave))+"
"0","  geom_bar(fill=""#0071BC"",stat=""identity"")+"
"0","  scale_y_continuous(limits=c(0,.4), labels=scales::percent) +"
"0","  geom_text(aes(label=paste0(round(ave*100,1),""%"")), position=position_dodge(0),vjust=-0.25,size=3) +"
"0","   busara_theme+"
"0","  ylab(""Percentage"")+ xlab(""Search methods"")+ggtitle(""Search behavior"")"
