"0","dt_data %>%"
"0","  dplyr::select(search_cong,sharing_behavior)%>%"
"0","  filter(search_cong==0)%>%"
"0","  mutate(sharing_behavior=ifelse(sharing_behavior==""Communities of practice"",""Communities \nof practice"",sharing_behavior))%>%"
"0","  dplyr::group_by(sharing_behavior) %>%"
"0","  summarise(count=n())%>%"
"0","    mutate(ave=count/sum(count))%>%"
"0","   ggplot(aes(x=reorder(sharing_behavior,-ave),y=ave))+"
"0","  geom_bar(fill=""#0071BC"",stat=""identity"")+"
"0","  scale_y_continuous(limits=c(0,.6), labels=scales::percent) +"
"0","  geom_text(aes(label=paste0(round(ave*100,1),""%"")), position=position_dodge(0),vjust=-0.25,size=3) +"
"0","   busara_theme+"
"0","  ylab(""Percentage"")+ xlab(""Sharing methods"")+ggtitle(""Sharing behavior"")"
