"0","dt_prof%>%"
"0","  dplyr::select(sharing_cong,group,value)%>%"
"0","  filter(sharing_cong==0)%>%"
"0","  dplyr::group_by(group)%>%"
"0","  summarise(total=sum(value))%>%"
"0","      mutate(ave=total/sum(total))%>%"
"0","   ggplot(aes(x=reorder(group,-ave),y=ave))+"
"0","  geom_bar(fill=""#0071BC"",stat=""identity"")+"
"0","  scale_y_continuous(limits=c(0,.6), labels=scales::percent) +"
"0","  geom_text(aes(label=paste0(round(ave*100,1),""%"")), position=position_dodge(0),vjust=-0.25,size=3) +"
"0","   busara_theme+"
"0","  ylab(""Percentage"")+ xlab("""")+ggtitle(""Professional groups"")"
