"0","### Treatment branches "
"0","#Gadisa Darara"
"0","gadisa<-gadisa_2019%>% filter(Indicator==""Amounts of Voluntary savings collected during the period"")%>%"
"0","       dplyr::select(Augu.,Sept.,Oct.,Nov.,Dec.)%>%gather()%>%"
"0","       mutate(Branch=rep(""Gadisa Derara"",5)) %>%"
"0","       mutate(treat=rep(""Treatment"",5))"
"0","#Limu Kera"
"0","limu<-limu_2019%>% filter(Indicator==""Amounts of Voluntary savings collected during the period"")%>%"
"0","       dplyr::select(Augu.,Sept.,Oct.,Nov.,Dec.)%>%gather()%>%"
"0","       mutate(Branch=rep(""Limu Kera"",5)) %>%"
"0","       mutate(treat=rep(""Treatment"",5))"
"0","#Koma Ketera"
"0","koma<-koma_2019%>% filter(Indicator==""Amounts of Voluntary savings collected during the period"")%>%"
"0","        dplyr::select(Augu.,Sept.,Oct.,Nov.,Dec.)%>%gather()%>%"
"0","       mutate(Branch=rep(""Koma Ketera"",5)) %>%"
"0","       mutate(treat=rep(""Treatment"",5))"
"0","#Sirbo"
"0","sirbo<-sirbo_2019%>% filter(Indicator==""Amounts of Voluntary savings collected during the period"")%>%"
"0","       dplyr::select(Augu.,Sept.,Oct.,Nov.,Dec.)%>%gather()%>%"
"0","       mutate(Branch=rep(""Sirbo"",5)) %>%"
"0","       mutate(treat=rep(""Treatment"",5))"
"0",""
"0","treatment_total_busa<-rbind(gadisa,limu,koma,sirbo)"
"0",""
"0","### control branches "
"0","  #Ejersa Chumulugo"
"0","  #Bekoji Mirti"
"0","  #Lencha Wosha"
"0","  #Wokentera Burkitu"
"0",""
"0","#Ejersa Chumulugo"
"0","ejersa<-ejersa_2019%>% filter(Indicator==""Amounts of Voluntary savings collected during the period"")%>%"
"0","       dplyr::select(Augu.,Sept.,Oct.,Nov.,Dec.)%>%gather()%>%"
"0","       mutate(Branch=rep(""Ejersa Chumulugo"",5)) %>%"
"0","       mutate(treat=rep(""Control"",5))"
"0"," #Bekoji Mirti"
"0","bekoji<-bekoji_2019%>% filter(Indicator==""Amounts of Voluntary savings collected during the period"")%>%"
"0","        dplyr::select(Augu.,Sept.,Oct.,Nov.,Dec.)%>%gather()%>%"
"0","       mutate(Branch=rep(""Bekoji Mirti"",5)) %>%"
"0","       mutate(treat=rep(""Control"",5))"
"0","##Lencha Wosha"
"0","lencha<-lencha_2019%>% filter(Indicator==""Amounts of Voluntary savings collected during the period"")%>%"
"0","       dplyr::select(Augu.,Sept.,Oct.,Nov.,Dec.)%>%gather()%>%"
"0","       mutate(Branch=rep(""Lencha Wosha"",5)) %>%"
"0","       mutate(treat=rep(""Control"",5))"
"0","##Wokentera Burkitu"
"0","wokentera<-wokentera_2019%>% filter(Indicator==""Amounts of Voluntary savings collected during the period"")%>%"
"0","       dplyr::select(Augu.,Sept.,Oct.,Nov.,Dec.)%>%gather()%>%"
"0","       mutate(Branch=rep(""Wokentera Burkitu"",5)) %>%"
"0","       mutate(treat=rep(""Control"",5))"
"0",""
"0",""
"0","control_total_busa<-rbind(ejersa,bekoji,lencha,wokentera)"
"0",""
"0","dt<-rbind(control_total_busa,treatment_total_busa)"
"0",""
"0",""
"0","dt1<-dt%>%group_by(treat,key)%>%"
"0","  mutate(value=as.numeric(value))%>%"
"0","  summarise(savings=sum(value))"
"0","### create factors"
"0","dt1$key<-factor(dt1$key,"
"0","                            levels=c(""Augu."",""Sept."",""Oct."",""Nov."",""Dec.""),"
"0","                            labels=c(""Aug"",""Sept"",""Oct"",""Nov"",""Dec""))"
"0",""
"0","##plot"
"0","ggplot(data=dt1, aes(x=key, y = savings,group=treat, color=treat)) + "
"0","  geom_line(stat = ""identity"") + "
"0","  busara_theme1+"
"0"," ggtitle(""How the amounts of savings has evolved across the testing period"")+ylab(""Frequency"")+ xlab("""")+"
"0","  scale_color_manual(values = c(""#0071BC"",""maroon"",""black""))"
