"0","library(stargazer)"
"0",""
"0",""
"0"," dt3<-dt_merged%>%group_by(group,search_behavior)%>%"
"0","   filter(search_behavior!=""NA"")%>%"
"0","        summarise(count=n())%>%"
"0","        mutate(ave=round(count/sum(count),2))"
"0","    "
"0","     dcast(dt3,search_behavior~group, value.var=""ave"")%>%"
"0","    kable() %>%"
"0","    kable_styling()"
