"0",""
"0","ksuccess_data3 = ksuccess_data%>%"
"0","  mutate(region = tolower(region),"
"0","         region = trimws(region, which = c(""both"")),"
"0","         region = gsub(""lower_middle_income_economies"", ""Lower middle income"",region, fixed = TRUE ),"
"0","         region = gsub(""low_income_economies"", ""Low income"", region, fixed =  TRUE),"
"0","         region = gsub(""high_income_economies"", ""High income"", region, fixed = TRUE),"
"0","         region = gsub(""somalia"", ""Low income"", region, fixed = TRUE),"
"0","         region = gsub(""upper_middle_economies"", ""Upper middle income"", region, fixed = TRUE))"
"0",""
"0","         "
"0","#Calculate the respondent by region"
"0","summ_table5 = ksuccess_data3%>%"
"0","  group_by(region)%>%"
"0","  summarise(count= n())%>%"
"0","  arrange(desc(count))%>%"
"0","  mutate(perc = round(count/length(unique(ksuccess_data3$KEY)), digits = 2) *100)"
"0",""
"0",""
"0","#Table "
"0","print(kable_styling(kable(summ_table5,col.names = c(""Regions"",""Frequency"",""Percentage"")),bootstrap_options = ""striped"", full_width = F))"
