"0","#gender"
"0",""
"0",""
"0","dataset%>%"
"0","  dplyr::select(gender)%>%"
"0","   mutate(gender=ifelse(gender==1,""Male"","
"0","                        ifelse(gender==2,""Female"",""Prefer not to answer"")))%>%"
"0",""
"0","  group_by(gender)%>%"
"0","  summarise(count=n())%>%"
"0","  mutate(perc=count/sum(count)) %>%"
"0","  ggplot(aes(x=reorder(gender,-perc),y=perc))+"
"0","  geom_bar(fill=""#0071BC"",stat=""identity"")+"
"0","  scale_y_continuous(labels=scales::percent) +"
"0","  geom_text(aes(label=paste0(round(perc*100,1),""%"")), position=position_dodge(0),vjust=-0.25,size=3)+"
"0","   busara_theme+"
"0","  ylab(""Percentage"")+ xlab(""Gender"")+ggtitle(""Respondents distribution by gender"")                 "
"0",""
