"0","### load required packages"
"0",""
"0","# Load required libraries"
"0","pkgs <- c(""readstata13"", ""tidyverse"", ""lubridate"", ""glue"", ""data.table"", ""stringr"","
"0","          ""dplyr"",""readxl"",""tidyr"",""splitstackshape"", ""ggplot2"",""kableExtra"",""reshape2"",""nnet"",""MASS"")"
"0",""
"0","## Create vector of missing packages"
"0","miss_pkgs <- pkgs[!pkgs %in% installed.packages()[,1]] "
"0",""
"0","## Install the missing packages"
"0","if(length(miss_pkgs)>0){"
"0","  install.packages(miss_pkgs, dependencies = TRUE)"
"0","}"
"0",""
"0","## Load all the packages"
"0","invisible(lapply(pkgs,library,character.only=TRUE))"
"0",""
"0",""
"0","# set busara theme"
"0","busara_theme1<-theme(legend.position = ""bottom"","
"0","                  legend.title = element_blank(),"
"0","                  axis.line.y = element_blank(),"
"0","                  axis.line.x = element_line(colour = ""black"", size=0.5),"
"0","                  legend.text = element_text(family = ""Source Sans Pro"", size = rel(0.9)),"
"0","                  plot.caption = element_text(family = ""Source Sans Pro"", size = rel(1.1), "
"0","                                              vjust = -0.5),"
"0","                  plot.title = element_text(family=""Source Sans Pro Semibold"", size = rel(1.3), "
"0","                                            hjust = 0.5),"
"0","                  plot.subtitle = element_text(family=""Source Sans Pro Semibold"", size = rel(1.3), "
"0","                                            hjust = 0.5),"
"0","                  axis.text = element_text(family = ""Source Sans Pro"", size = rel(0.8)),"
"0","                  axis.title = element_text(family = ""Source Sans Pro"", size = rel(1.0)),"
"0","                  strip.text.x = element_text(family = ""Source Sans Pro"", size = rel(1.4)),"
"0","                  panel.background = element_rect(fill = NA),"
"0","                 strip.background = element_rect(fill = NA, colour=""black""))"
"0",""
"0",""
"0","busara_theme<-theme(legend.position = ""bottom"","
"0","                  legend.title = element_blank(),"
"0","                  axis.line.y = element_blank(),"
"0","                  axis.text.y=element_blank(),"
"0","                  axis.ticks.y=element_blank(),"
"0","                  axis.title.y=element_blank(),"
"0","                  axis.line.x = element_line(colour = ""black"", size=0.5),"
"0","                  legend.text = element_text(family = ""Source Sans Pro"", size = rel(0.9)),"
"0","                  plot.caption = element_text(family = ""Source Sans Pro"", size = rel(1.1), "
"0","                                              vjust = -0.5),"
"0","                  plot.title = element_text(family=""Source Sans Pro Semibold"", size = rel(1.3), "
"0","                                            hjust = 0.5),"
"0","                  plot.subtitle = element_text(family=""Source Sans Pro Semibold"", size = rel(1.3), "
"0","                                            hjust = 0.5),"
"0","                  axis.text = element_text(family = ""Source Sans Pro"", size = rel(0.8)),"
"0","                  axis.title = element_text(family = ""Source Sans Pro"", size = rel(1.0)),"
"0","                  strip.text.x = element_text(family = ""Source Sans Pro"", size = rel(1.4)),"
"0","                  panel.background = element_rect(fill = NA),"
"0","                 strip.background = element_rect(fill = NA, colour=""black""))"
"0",""
"0",""
"0","busara_theme2<-theme(legend.position = ""bottom"","
"0","                  legend.title = element_blank(),"
"0","                  #axis.line.y = element_blank(),"
"0","                  axis.text.x=element_blank(),"
"0","                  axis.ticks.x=element_blank(),"
"0","                  axis.title.x=element_blank(),"
"0","                  axis.line.y = element_line(colour = ""black"", size=0.5),"
"0","                  legend.text = element_text(family = ""Source Sans Pro"", size = rel(0.9)),"
"0","                  plot.caption = element_text(family = ""Source Sans Pro"", size = rel(1.1), "
"0","                                              vjust = -0.5),"
"0","                  plot.title = element_text(family=""Source Sans Pro Semibold"", size = rel(1.3), "
"0","                                            hjust = 0.5),"
"0","                  plot.subtitle = element_text(family=""Source Sans Pro Semibold"", size = rel(1.3), "
"0","                                            hjust = 0.5),"
"0","                  axis.text = element_text(family = ""Source Sans Pro"", size = rel(0.8)),"
"0","                  axis.title = element_text(family = ""Source Sans Pro"", size = rel(1.0)),"
"0","                  strip.text.x = element_text(family = ""Source Sans Pro"", size = rel(1.4)),"
"0","                  panel.background = element_rect(fill = NA),"
"0","                 strip.background = element_rect(fill = NA, colour=""black""))"
"0",""
"0","# set pallete"
"0","busara_pallate = c(""#0071BC"",""#66AAD7"",""#00558D"",""#CCE3F2"",""#323232"",""#40B6B7"",""#ADADAD"",""#5B5B5B"")"
