"0","dataset = dataset%>%"
"0","  mutate(geog_region = tolower(geog_region),"
"0","         geog_region = trimws(geog_region, which = c(""both"")),"
"0","         geog_region = gsub(""africa"", ""Africa"",geog_region, fixed = TRUE ),"
"0","         geog_region = gsub(""asia"", ""Asia"", geog_region, fixed =  TRUE),"
"0","         geog_region = gsub(""zimbabwe"", ""Africa"", geog_region, fixed =  TRUE),"
"0","         geog_region = gsub(""somalia"", ""Africa"", geog_region, fixed =  TRUE),"
"0","         geog_region = gsub(""europe"", ""Europe"", geog_region, fixed = TRUE),"
"0","         geog_region = gsub(""northamerica"", ""North America"", geog_region, fixed = TRUE),"
"0","         geog_region = gsub(""oceania"", ""Oceania"", geog_region, fixed = TRUE),"
"0","         geog_region = gsub(""southamerica"", ""South America"", geog_region, fixed = TRUE))"
"0",""
"0","         "
"0","#Calculate the respondent by geographic region"
"0","summ_table6 = dataset%>%"
"0","   mutate(geog_region=str_to_title(geog_region))%>%"
"0","  group_by(geog_region)%>%"
"0","  summarise(count= n())%>%"
"0","  arrange(desc(count))%>%"
"0","  mutate(perc = round(count/length(unique(dataset$KEY)), digits = 2) *100)"
"0",""
"0",""
"0","#Table "
"0","print(kable_styling(kable(summ_table6,col.names = c(""Geographic Regions"",""Frequency"",""Percentage"")),bootstrap_options = ""striped"", full_width = F))"
